%YAML 1.1
%TAG !u! tag:unity3d.com,2011:
--- !u!1045 &1
EditorBuildSettings:
  m_ObjectHideFlags: 0
  serializedVersion: 2
  m_Scenes:
  - enabled: 1
    path: Assets/Scenes/Lobby.unity
    guid: 3ca7da424f6a5994386408b45802229c
  - enabled: 1
    path: Assets/Scenes/scene.unity
    guid: 261094db5e6f30e4baaabac957305430
  m_configObjects: {}
